^C:\USERS\ANDREY\DOCUMENTS\VISUAL STUDIO 2015\PROJECTS\3_2B_23_15_BERESTOV_41\3_2B_23_15_BERESTOV_41_APP\STDAFX.CPP
C:\USERS\ANDREY\DOCUMENTS\VISUAL STUDIO 2015\PROJECTS\3_2B_23_15_BERESTOV_41\3_2B_23_15_BERESTOV_41_APP\RELEASE\3_2B_23_15_BERESTOV_41_APP.PCH
C:\USERS\ANDREY\DOCUMENTS\VISUAL STUDIO 2015\PROJECTS\3_2B_23_15_BERESTOV_41\3_2B_23_15_BERESTOV_41_APP\RELEASE\VC140.PDB
C:\USERS\ANDREY\DOCUMENTS\VISUAL STUDIO 2015\PROJECTS\3_2B_23_15_BERESTOV_41\3_2B_23_15_BERESTOV_41_APP\RELEASE\STDAFX.OBJ
^C:\USERS\ANDREY\DOCUMENTS\VISUAL STUDIO 2015\PROJECTS\3_2B_23_15_BERESTOV_41\3_2B_23_15_BERESTOV_41_APP\3_2B_23_15_BERESTOV_41_APP.CPP
C:\USERS\ANDREY\DOCUMENTS\VISUAL STUDIO 2015\PROJECTS\3_2B_23_15_BERESTOV_41\3_2B_23_15_BERESTOV_41_APP\RELEASE\VC140.PDB
C:\USERS\ANDREY\DOCUMENTS\VISUAL STUDIO 2015\PROJECTS\3_2B_23_15_BERESTOV_41\3_2B_23_15_BERESTOV_41_APP\RELEASE\3_2B_23_15_BERESTOV_41_APP.OBJ
