^C:\USERS\ANDREY\DOCUMENTS\VISUAL STUDIO 2015\PROJECTS\3_2B_23_15_BERESTOV_41\3_2B_23_15_BERESTOV_41_TEST\STDAFX.CPP
C:\USERS\ANDREY\DOCUMENTS\VISUAL STUDIO 2015\PROJECTS\3_2B_23_15_BERESTOV_41\3_2B_23_15_BERESTOV_41_TEST\RELEASE\3_2B_23_15_BERESTOV_41_TEST.PCH
C:\USERS\ANDREY\DOCUMENTS\VISUAL STUDIO 2015\PROJECTS\3_2B_23_15_BERESTOV_41\3_2B_23_15_BERESTOV_41_TEST\RELEASE\VC140.PDB
C:\USERS\ANDREY\DOCUMENTS\VISUAL STUDIO 2015\PROJECTS\3_2B_23_15_BERESTOV_41\3_2B_23_15_BERESTOV_41_TEST\RELEASE\STDAFX.OBJ
^C:\USERS\ANDREY\DOCUMENTS\VISUAL STUDIO 2015\PROJECTS\3_2B_23_15_BERESTOV_41\3_2B_23_15_BERESTOV_41_TEST\3_2B_23_15_BERESTOV_41_TEST.CPP
C:\USERS\ANDREY\DOCUMENTS\VISUAL STUDIO 2015\PROJECTS\3_2B_23_15_BERESTOV_41\3_2B_23_15_BERESTOV_41_TEST\RELEASE\VC140.PDB
C:\USERS\ANDREY\DOCUMENTS\VISUAL STUDIO 2015\PROJECTS\3_2B_23_15_BERESTOV_41\3_2B_23_15_BERESTOV_41_TEST\RELEASE\3_2B_23_15_BERESTOV_41_TEST.OBJ
