^C:\USERS\ANDREY\DOCUMENTS\VISUAL STUDIO 2015\PROJECTS\3_2B_23_15_BERESTOV_41\3_2B_23_15_BERESTOV_41_TEST\STDAFX.CPP
/c /I"C:\USERS\ANDREY\DOCUMENTS\VISUAL STUDIO 2015\PROJECTS\GTEST-1.7.0\INCLUDE" /ZI /nologo /W3 /WX- /sdl /Od /Oy- /D WIN32 /D _DEBUG /D _CONSOLE /D _UNICODE /D UNICODE /Gm /EHsc /RTC1 /MTd /GS /fp:precise /Zc:wchar_t /Zc:forScope /Zc:inline /Yc"stdafx.h" /Fp"DEBUG\3_2B_23_15_BERESTOV_41_TEST.PCH" /Fo"DEBUG\\" /Fd"DEBUG\VC140.PDB" /Gd /TP /analyze- C:\USERS\ANDREY\DOCUMENTS\VISUAL STUDIO 2015\PROJECTS\3_2B_23_15_BERESTOV_41\3_2B_23_15_BERESTOV_41_TEST\STDAFX.CPP
^C:\USERS\ANDREY\DOCUMENTS\VISUAL STUDIO 2015\PROJECTS\3_2B_23_15_BERESTOV_41\3_2B_23_15_BERESTOV_41_TEST\3_2B_23_15_BERESTOV_41_TEST.CPP
/c /I"C:\USERS\ANDREY\DOCUMENTS\VISUAL STUDIO 2015\PROJECTS\GTEST-1.7.0\INCLUDE" /ZI /nologo /W3 /WX- /sdl /Od /Oy- /D WIN32 /D _DEBUG /D _CONSOLE /D _UNICODE /D UNICODE /Gm /EHsc /RTC1 /MTd /GS /fp:precise /Zc:wchar_t /Zc:forScope /Zc:inline /Yu"stdafx.h" /Fp"DEBUG\3_2B_23_15_BERESTOV_41_TEST.PCH" /Fo"DEBUG\\" /Fd"DEBUG\VC140.PDB" /Gd /TP /analyze- C:\USERS\ANDREY\DOCUMENTS\VISUAL STUDIO 2015\PROJECTS\3_2B_23_15_BERESTOV_41\3_2B_23_15_BERESTOV_41_TEST\3_2B_23_15_BERESTOV_41_TEST.CPP
^C:\USERS\МИХАИЛ\DOWNLOADS\3_2B_23_15_BERESTOV_41\3_2B_23_15_BERESTOV_41\3_2B_23_15_BERESTOV_41_TEST\STDAFX.CPP
/c /I"C:\USERS\МИХАИЛ\DOCUMENTS\VISUAL STUDIO 2015\PROJECTS\GTEST-1.7.0\INCLUDE" /ZI /nologo /W3 /WX- /sdl /Od /Oy- /D WIN32 /D _DEBUG /D _CONSOLE /D _UNICODE /D UNICODE /Gm /EHsc /RTC1 /MTd /GS /fp:precise /Zc:wchar_t /Zc:forScope /Zc:inline /Yc"stdafx.h" /Fp"DEBUG\3_2B_23_15_BERESTOV_41_TEST.PCH" /Fo"DEBUG\\" /Fd"DEBUG\VC140.PDB" /Gd /TP /analyze- C:\USERS\МИХАИЛ\DOWNLOADS\3_2B_23_15_BERESTOV_41\3_2B_23_15_BERESTOV_41\3_2B_23_15_BERESTOV_41_TEST\STDAFX.CPP
^C:\USERS\МИХАИЛ\DOWNLOADS\3_2B_23_15_BERESTOV_41\3_2B_23_15_BERESTOV_41\3_2B_23_15_BERESTOV_41_TEST\3_2B_23_15_BERESTOV_41_TEST.CPP
/c /I"C:\USERS\МИХАИЛ\DOCUMENTS\VISUAL STUDIO 2015\PROJECTS\GTEST-1.7.0\INCLUDE" /ZI /nologo /W3 /WX- /sdl /Od /Oy- /D WIN32 /D _DEBUG /D _CONSOLE /D _UNICODE /D UNICODE /Gm /EHsc /RTC1 /MTd /GS /fp:precise /Zc:wchar_t /Zc:forScope /Zc:inline /Yu"stdafx.h" /Fp"DEBUG\3_2B_23_15_BERESTOV_41_TEST.PCH" /Fo"DEBUG\\" /Fd"DEBUG\VC140.PDB" /Gd /TP /analyze- C:\USERS\МИХАИЛ\DOWNLOADS\3_2B_23_15_BERESTOV_41\3_2B_23_15_BERESTOV_41\3_2B_23_15_BERESTOV_41_TEST\3_2B_23_15_BERESTOV_41_TEST.CPP
